NB_TRAINING_TARGET_CLUTTER_CLASSES
2
--------------
TRAINING_TARGET_CLASS
Nb_Training_Areas
1
--------------
Nb_Tie_Points
1
Tie_Point
Row
1
Col
1
--------------
TRAINING_CLUTTER_CLASS
Nb_Training_Areas
1
--------------
Nb_Tie_Points
1
Tie_Point
Row
1
Col
1
